<?xml version="1.0" encoding="UTF-8" standalone="no"?>
<svg
   viewBox="0 0 640 512"
   version="1.1"
   id="svg4"
   sodipodi:docname="eskool-nsi-blanc.svg"
   inkscape:version="1.1.1 (3bf5ae0d25, 2021-09-20, custom)"
   xmlns:inkscape="http://www.inkscape.org/namespaces/inkscape"
   xmlns:sodipodi="http://sodipodi.sourceforge.net/DTD/sodipodi-0.dtd"
   xmlns="http://www.w3.org/2000/svg"
   xmlns:svg="http://www.w3.org/2000/svg">
  <defs
     id="defs8" />
  <sodipodi:namedview
     id="namedview6"
     pagecolor="#ffffff"
     bordercolor="#666666"
     borderopacity="1.0"
     inkscape:pageshadow="2"
     inkscape:pageopacity="0.0"
     inkscape:pagecheckerboard="0"
     showgrid="false"
     inkscape:zoom="1"
     inkscape:cx="286.5"
     inkscape:cy="256"
     inkscape:window-width="1880"
     inkscape:window-height="2130"
     inkscape:window-x="71"
     inkscape:window-y="0"
     inkscape:window-maximized="0"
     inkscape:current-layer="layer3" />
  <g
     inkscape:groupmode="layer"
     id="layer4"
     inkscape:label="chapeau" />
  <g
     inkscape:groupmode="layer"
     id="layer3"
     inkscape:label="ordi"
     style="display:inline">
    <path
       style="fill:#ffffff;stroke:#999999;stroke-width:1.18383;stroke-linejoin:round;paint-order:markers stroke fill"
       d="m 53.653332,438.33931 c -3.628806,-3.22981 -4.76564,-6.07208 -4.76564,-11.91493 0,-4.22032 5.184657,-35.84392 11.521471,-70.27471 l 11.521494,-62.6014 -4.581273,-6.27127 c -6.247619,-8.55225 -9.298474,-19.86724 -7.684151,-28.49886 1.525035,-8.15432 6.908122,-18.40925 11.40847,-21.73354 1.67983,-1.24086 3.069414,-4.29938 3.087962,-6.79671 0.06554,-8.81174 5.787412,-28.55906 11.329787,-39.10061 l 5.609716,-10.66952 -25.401528,-9.3547 C 44.705546,163.39152 39.535579,160.76041 35.903192,155.95905 26.943212,144.11553 27.727798,129.69214 37.841073,120.33351 42.954782,115.60142 67.376488,105.93399 178.0013,64.850454 307.48402,16.763532 312.39131,15.099963 324.58894,15.156714 c 12.09005,0.05616 18.20645,2.142333 145.61686,49.664691 73.14822,27.283294 134.94439,50.739015 137.32484,52.123815 14.14581,8.2292 14.06529,36.40404 -0.1268,44.39385 -2.31069,1.30085 -63.61293,24.46318 -136.22721,51.47182 -124.56965,46.33329 -132.79349,49.13748 -145.61684,49.65324 l -13.59091,0.54663 -95.05231,-35.44506 c -90.88276,-33.89024 -95.21422,-35.31483 -98.7439,-32.47635 -5.57927,4.48663 -12.24613,17.3169 -14.86826,28.61363 -2.15432,9.28118 -2.03476,10.39218 1.4874,13.82462 13.62909,13.28167 14.98518,33.74911 3.29621,49.74994 l -4.58168,6.27178 11.5185,62.85131 c 6.33519,34.56822 11.52002,66.19156 11.52188,70.27417 0.001,5.57955 -1.1801,8.47621 -4.76228,11.66451 -4.63884,4.12873 -5.54584,4.24164 -34.065586,4.24164 -28.519778,0 -29.426764,-0.11285 -34.065533,-4.24164 z"
       id="path1155" />
    <path
       style="fill:#ffffff;stroke:#999999;stroke-width:1.37438;stroke-linejoin:round;paint-order:markers stroke fill"
       d="M 284.77036,460.62338 C 210.79093,452.3202 151.96706,425.19148 137.70141,392.7974 l -4.875,-11.0701 7.05505,-76.72224 c 3.88031,-42.19722 7.75506,-77.49595 8.61065,-78.44157 0.85559,-0.94565 36.64268,12.61274 79.52687,30.12974 70.03346,28.60674 79.57334,31.96744 93.70894,33.01179 9.3175,0.68835 19.97568,0.1265 26.1261,-1.37704 5.71355,-1.39689 44.07936,-16.30071 85.25734,-33.11958 41.17794,-16.8189 75.3327,-30.12687 75.89935,-29.57327 0.56681,0.55362 4.30195,35.31884 8.30048,77.25608 8.63306,90.54594 8.76078,89.3251 -11.40123,109.02059 -21.08227,20.59458 -60.26275,36.75877 -110.01509,45.38763 -23.33737,4.04748 -87.56166,5.9686 -111.12451,3.32395 z"
       id="path1194" />
    <path
       style="display:inline;fill:#ffffff;stroke:#999999;stroke-width:0.711847;stroke-linejoin:round;paint-order:markers stroke fill"
       d="m 343.40472,251.70007 c -11.04384,-2.64664 -18.92711,-8.16109 -26.27853,-18.38207 -4.69498,-6.52759 -5.03796,-8.26039 -2.0767,-10.49136 1.80205,-1.35763 97.22267,-37.90926 103.58592,-39.67943 1.14729,-0.31916 2.90507,0.50716 4.33723,2.03873 2.56183,2.73975 11.46733,5.7191 16.06001,5.37293 1.52046,-0.11466 9.9112,-2.88339 18.64609,-6.15283 19.64523,-7.3531 21.22783,-8.71937 19.92652,-17.20242 l -0.9264,-6.03878 53.44065,-20.12289 c 40.82684,-15.37322 53.95741,-19.94203 55.6299,-19.35663 3.78738,1.32574 8.03101,5.81362 11.68236,12.3547 5.88928,10.5503 4.11444,22.27369 -4.36781,28.85075 -3.94475,3.0587 -2.6514,2.55603 -125.06764,48.61027 -115.90903,43.60625 -113.55016,42.84514 -124.5916,40.19903 z"
       id="path1116" />
    <path
       style="display:inline;fill:#ffffff;stroke:#999999;stroke-width:1.16099;stroke-linejoin:round;paint-order:markers stroke fill"
       d="m 373.93434,163.27794 c -7.75384,-2.72811 -18.14713,-10.13649 -19.60702,-13.97597 -0.93121,-2.44907 4.68972,-24.84021 9.97102,-39.71981 0.72179,-2.03355 -4.12612,-5.28851 -19.19089,-12.885038 -11.08616,-5.59029 -21.32745,-11.382119 -22.75842,-12.870711 -3.37451,-3.51042 -1.87536,-18.751746 2.37736,-24.16949 1.71653,-2.186758 4.56533,-3.975917 6.33071,-3.975917 4.01276,0 65.79045,30.184997 70.31067,34.354278 5.0571,4.66445 4.35042,9.976708 -5.52027,41.496348 -5.00798,15.99174 -9.1054,29.44426 -9.1054,29.89449 0,2.63643 -7.49694,3.72038 -12.80776,1.85182 z"
       id="path1038" />
    <path
       style="display:inline;fill:#ffffff;stroke:#999999;stroke-width:1.16099;stroke-linejoin:round;paint-order:markers stroke fill"
       d="m 273.68671,174.6567 c -32.70064,-16.08165 -40.30669,-21.32962 -40.30669,-27.81064 0,-4.6064 17.00564,-59.121549 19.80415,-63.48638 2.75752,-4.300912 7.47988,-3.822051 18.18296,1.843794 14.40255,7.624238 14.9487,9.919088 7.97285,33.501256 l -5.94009,20.08066 14.88976,7.12515 c 29.80671,14.26333 33.17317,17.80814 29.35668,30.91197 -2.31685,7.95482 -6.59854,13.4878 -10.34773,13.37177 -1.18414,-0.0366 -16.3095,-7.02855 -33.61189,-15.53758 z"
       id="path1077" />
  </g>
</svg>
